{
    "name": "Palisade Theme",
      "$schema": "vscode://schemas/color-theme",
      "type": "dark",
      "colors": {
        "activityBar.background": "#4C4C4C",
        "activityBar.border": "#4C4C4C60",
        "activityBar.foreground": "#D9AAFF",
        "activityBarBadge.background": "#DFE7FD",
        "activityBarBadge.foreground": "#4C4C4C",
        "badge.background": "#4C4C4C30",
        "badge.foreground": "#CDDAFD",
        "breadcrumb.activeSelectionForeground": "#CDDAFD",
        "breadcrumb.background": "#4C4C4C",
        "breadcrumb.focusForeground": "#D9AAFF",
        "breadcrumb.foreground": "#BEE1E6",
        "breadcrumbPicker.background": "#4C4C4C",
        "button.background": "#CDDAFD50",
        "contrastBorder": "#CDDAFD40",
        "debugToolBar.background": "#4C4C4C",
        "diffEditor.insertedTextBackground": "#FAD2E115",
        "diffEditor.removedTextBackground": "#E2ECE920",
        "dropdown.background": "#4C4C4C",
        "dropdown.border": "#E8CBFF10",
        "editor.background": "#4C4C4C",
        "editor.findMatchBackground": "#4C4C4C",
        "editor.findMatchBorder": "#CDDAFD",
        "editor.findMatchHighlightBackground": "#CDDAFD93",
        "editor.findMatchHighlightBorder": "#E8CBFF30",
        "editor.foreground": "#D9AAFF",
        "editor.lineHighlightBackground": "#4C4C4C50",
        "editor.selectionBackground": "#DFE7FD30",
        "editor.selectionHighlightBackground": "#CDDAFD6b",
        "editor.selectionHighlightBorder": "#DFE7FDf0",
        "editorBracketMatch.background": "#4C4C4C",
        "editorBracketMatch.border": "#EAE4E97f",
        "editorCursor.foreground": "#EAE4E9",
        "editorError.foreground": "#E2ECE970",
        "editorGroup.border": "#4C4C4C30",
        "editorGroupHeader.tabsBackground": "#4C4C4C",
        "editorGutter.addedBackground": "#FAD2E160",
        "editorGutter.deletedBackground": "#E2ECE960",
        "editorGutter.modifiedBackground": "#DFE7FD60",
        "editorHoverWidget.background": "#4C4C4C",
        "editorHoverWidget.border": "#E8CBFF10",
        "editorIndentGuide.activeBackground": "#919191",
        "editorIndentGuide.background": "#91919170",
        "editorInfo.foreground": "#DFE7FD70",
        "editorLineNumber.activeForeground": "#DFE7FD",
        "editorLineNumber.foreground": "#CDDAFDc0",
        "editorLink.activeForeground": "#D9AAFF",
        "editorMarkerNavigation.background": "#D9AAFF05",
        "editorOverviewRuler.border": "#4C4C4C",
        "editorOverviewRuler.errorForeground": "#E2ECE940",
        "editorOverviewRuler.findMatchForeground": "#CDDAFD",
        "editorOverviewRuler.infoForeground": "#DFE7FD40",
        "editorOverviewRuler.warningForeground": "#EAE4E970",
        "editorRuler.foreground": "#919191",
        "editorSuggestWidget.background": "#4C4C4C",
        "editorSuggestWidget.border": "#E8CBFF10",
        "editorSuggestWidget.foreground": "#D9AAFF",
        "editorSuggestWidget.highlightForeground": "#EAE4E9",
        "editorSuggestWidget.selectedBackground": "#CDDAFD20",
        "editorWarning.foreground": "#FAD2E1",
        "editorWhitespace.foreground": "#D9AAFF40",
        "editorWidget.background": "#4C4C4C",
        "editorWidget.border": "#EAE4E9",
        "editorWidget.resizeBorder": "#CDDAFD",
        "extensionButton.prominentBackground": "#FAD2E190",
        "extensionButton.prominentHoverBackground": "#E2ECE9",
        "focusBorder": "#E8CBFF00",
        "gitDecoration.conflictingResourceForeground": "#EAE4E9",
        "gitDecoration.deletedResourceForeground": "#E2ECE9",
        "gitDecoration.ignoredResourceForeground": "#CDDAFD",
        "gitDecoration.modifiedResourceForeground": "#BEE1E6",
        "gitDecoration.untrackedResourceForeground": "#DFE7FD",
        "input.background": "#757575",
        "input.border": "#E8CBFF10",
        "input.foreground": "#D9AAFF",
        "input.placeholderForeground": "#D9AAFF60",
        "inputOption.activeBackground": "#D9AAFF30",
        "inputOption.activeBorder": "#D9AAFF30",
        "inputValidation.errorBorder": "#E2ECE950",
        "inputValidation.infoBorder": "#DFE7FD50",
        "inputValidation.warningBorder": "#EAE4E950",
        "list.activeSelectionBackground": "#4C4C4C",
        "list.activeSelectionForeground": "#CDDAFD",
        "list.focusBackground": "#757575",
        "list.focusForeground": "#DFE7FD",
        "list.highlightForeground": "#CDDAFD",
        "list.hoverBackground": "#919191",
        "list.hoverForeground": "#E8CBFF",
        "list.inactiveSelectionBackground": "#4C4C4C30",
        "list.inactiveSelectionForeground": "#CDDAFD",
        "list.warningForeground": "#EAE4E9",
        "listFilterWidget.background": "#4C4C4C30",
        "listFilterWidget.noMatchesOutline": "#4C4C4C30",
        "listFilterWidget.outline": "#4C4C4C30",
        "menu.background": "#4C4C4Cf8",
        "menu.border": "#CDDAFD50",
        "menu.foreground": "#D9AAFF",
        "menu.selectionBackground": "#757575",
        "menu.selectionBorder": "#4C4C4C30",
        "menu.selectionForeground": "#D9AAFF",
        "menu.separatorBackground": "#D9AAFF",
        "menubar.selectionBackground": "#757575",
        "menubar.selectionBorder": "#CDDAFD50",
        "menubar.selectionForeground": "#D9AAFF",
        "minimap.background": "#4C4C4C",
        "minimapGutter.addedBackground": "#E2ECE9",
        "minimapGutter.deletedBackground": "#EAE4E9",
        "minimapGutter.modifiedBackground": "#FAD2E1",
        "minimapSlider.activeBackground": "#FAD2E1b0",
        "minimapSlider.background": "#FAD2E180",
        "minimapSlider.hoverBackground": "#FAD2E1a0",
        "notificationLink.foreground": "#CDDAFD",
        "notifications.background": "#4C4C4C",
        "notifications.foreground": "#D9AAFF",
        "panel.background": "#4C4C4C",
        "panel.border": "#4C4C4C60",
        "panelTitle.activeBorder": "#CDDAFD",
        "panelTitle.activeForeground": "#E8CBFF",
        "panelTitle.inactiveForeground": "#D9AAFF",
        "peekView.border": "#4C4C4C30",
        "peekViewEditor.background": "#D9AAFF05",
        "peekViewEditor.matchHighlightBackground": "#CDDAFD50",
        "peekViewEditorGutter.background": "#D9AAFF05",
        "peekViewResult.background": "#D9AAFF05",
        "peekViewResult.matchHighlightBackground": "#CDDAFD50",
        "peekViewResult.selectionBackground": "#CDDAFD70",
        "peekViewTitle.background": "#D9AAFF05",
        "peekViewTitleDescription.foreground": "#D9AAFF60",
        "pickerGroup.foreground": "#CDDAFD",
        "progressBar.background": "#CDDAFD",
        "scrollbar.shadow": "#4C4C4C00",
        "scrollbarSlider.activeBackground": "#CDDAFDcc",
        "scrollbarSlider.background": "#CDDAFDbb",
        "scrollbarSlider.hoverBackground": "#CDDAFDee",
        "selection.background": "#CDDAFD",
        "settings.checkboxBackground": "#4C4C4C",
        "settings.checkboxForeground": "#D9AAFF",
        "settings.dropdownBackground": "#4C4C4C",
        "settings.dropdownForeground": "#D9AAFF",
        "settings.headerForeground": "#CDDAFD",
        "settings.modifiedItemIndicator": "#CDDAFD",
        "settings.numberInputBackground": "#4C4C4C",
        "settings.numberInputForeground": "#D9AAFF",
        "settings.textInputBackground": "#4C4C4C",
        "settings.textInputForeground": "#D9AAFF",
        "sideBar.background": "#4C4C4C",
        "sideBar.border": "#CDDAFD50",
        "sideBar.foreground": "#DFE7FD",
        "sideBarSectionHeader.background": "#4C4C4C",
        "sideBarSectionHeader.border": "#4C4C4C60",
        "sideBarSectionHeader.foreground": "#DFE7FD",
        "sideBarTitle.foreground": "#D9AAFF",
        "statusBar.background": "#FDE2E4",
        "statusBar.border": "#4C4C4C60",
        "statusBar.debuggingBackground": "#EAE4E9",
        "statusBar.debuggingForeground": "#E8CBFF",
        "statusBar.foreground": "#EAE4E9",
        "statusBar.noFolderBackground": "#4C4C4C",
        "statusBarItem.hoverBackground": "#CDDAFD20",
        "statusBarItem.remoteBackground": "#CDDAFD",
        "statusBarItem.remoteForeground": "#4C4C4C",
        "tab.activeBackground": "#CDDAFD50",
        "tab.activeBorder": "#CDDAFD",
        "tab.activeForeground": "#E8CBFF",
        "tab.activeModifiedBorder": "#CDDAFD",
        "tab.border": "#4C4C4C",
        "tab.inactiveBackground": "#CDDAFD20",
        "tab.inactiveForeground": "#D9AAFFaf",
        "tab.unfocusedActiveBorder": "#CDDAFD",
        "tab.unfocusedActiveBackground": "#CDDAFD40",
        "tab.unfocusedActiveForeground": "#D9AAFF",
        "tab.unfocusedInactiveBackground": "#CDDAFD10",
        "tab.unfocusedInactiveForeground": "#D9AAFF7f",
        "terminal.ansiBlack": "#4C4C4C",
        "terminal.ansiBlue": "#DFE7FD",
        "terminal.ansiBrightBlack": "#CDDAFD",
        "terminal.ansiBrightBlue": "#DFE7FD",
        "terminal.ansiBrightCyan": "#FFF1E6",
        "terminal.ansiBrightGreen": "#FAD2E1",
        "terminal.ansiBrightMagenta": "#EAE4E9",
        "terminal.ansiBrightRed": "#E2ECE9",
        "terminal.ansiBrightWhite": "#E8CBFF",
        "terminal.ansiBrightYellow": "#EAE4E9",
        "terminal.ansiCyan": "#FFF1E6",
        "terminal.ansiGreen": "#FAD2E1",
        "terminal.ansiMagenta": "#EAE4E9",
        "terminal.ansiRed": "#E2ECE9",
        "terminal.ansiWhite": "#E8CBFF",
        "terminal.ansiYellow": "#EAE4E9",
        "terminalCursor.background": "#4C4C4C",
        "terminalCursor.foreground": "#EAE4E9",
        "textLink.activeForeground": "#D9AAFF",
        "textLink.foreground": "#CDDAFD",
        "titleBar.activeBackground": "#4C4C4C",
        "titleBar.activeForeground": "#D9AAFF",
        "titleBar.border": "#4C4C4C60",
        "titleBar.inactiveBackground": "#4C4C4C",
        "titleBar.inactiveForeground": "#CDDAFD",
        "tree.indentGuidesStroke": "#919191",
        "widget.shadow": "#4C4C4C30",
      },
      "tokenColors": [
        {
          "scope": [
            "variable",
            "string constant.other.placeholder",
            "invalid.deprecated",
            "keyword",
            "storage.type",
            "storage.modifier"
          ],
          "settings": {
            "foreground": "#EAE4E9"
          }
        },
        {
          "scope": [
            "variable",
            "string constant.other.placeholder",
            "entity.name.function",
            "punctuation.definition.interpolation.end.bracket.curly.scss",
            "punctuation.definition.interpolation.begin.bracket.curly.scss"
          ],
          "settings": {
            "fontStyle": "italic"
          }
        },
        {
          "scope": [
            "punctuation.definition.interpolation.end.bracket.curly.scss",
            "punctuation.definition.interpolation.begin.bracket.curly.scss"
          ],
          "settings": {
            "foreground": "#FAD2E1"
          }
        },
        {
          "scope": [
            "constant.other.php"
          ],
          "settings": {
            "foreground": "#EAE4E9"
          }
        },
        {
          "scope": [
            "constant.other.color"
          ],
          "settings": {
            "foreground": "#E8CBFF"
          }
        },
        {
          "scope": [
            "invalid",
            "invalid.illegal"
          ],
          "settings": {
            "foreground": "#E2ECE9"
          }
        },
        {
          "scope": [
            "Keyword",
            "Storage"
          ],
          "settings": {
            "fontStyle": "italic"
          }
        },
        {
          "scope": [
            "keyword.control",
            "constant.other.color",
            "punctuation.definition.tag",
            "punctuation",
            "punctuation.separator.inheritance.php",
            "punctuation.definition.tag.html",
            "punctuation.section.embedded",
            "keyword.other.template",
            "keyword.other.substitution",
            "entity.name.tag.reference.scss"
          ],
          "settings": {
            "foreground": "#A7A8AF"
          }
        },
        {
          "scope": [
            "punctuation.definition.tag.begin.html",
            "punctuation.definition.tag.end.html",
            "entity.name.type.module.js"
          ],
          "settings": {
            "foreground": "#BEE1E6"
          }
        },
        {
          "scope": [
            "keyword.control.at-rule",
            "punctuation.terminator.rule.css",
            "keyword.control.operator",
            "punctuation.definition.entity.css",
            "keyword.operator.assignment.js",
            "punctuation.separator.comma.js",
            "punctuation.definition.string.begin.js",
            "punctuation.definition.string.end.js",
            "punctuation.definition.binding-pattern.object.js"
          ],
          "settings": {
            "foreground": "#D9AAFF"
          }
        },
        {
          "scope": [
            "punctuation.definition",
            "string.quoted.single.scss"
          ],
          "settings": {
            "foreground": "#A7A8AF"
          }
        },
        {
          "scope": [
            "keyword.control"
          ],
          "settings": {
            "fontStyle": "bold"
          }
        },
        {
          "scope": [
            "comment.line.scss",
            "comment.line.double-slash.js",
            "punctuation.definition.comment.scss",
            "punctuation.definition.comment.js",
            "punctuation.definition.comment.html",
            "comment.block.html"
          ],
          "settings": {
            "foreground": "#6D6F7C"
          }
        },
        {
          "scope": [
            "text.html.derivative"
          ],
          "settings": {
            "foreground": "#A7A8AF"
          }
        },
        {
          "scope": [
            "entity.name.tag",
            "meta.tag.sgml",
            "markup.deleted.git_gutter"
          ],
          "settings": {
            "foreground": "#D9AAFF"
          }
        },
        {
          "scope": [
            "entity.name.tag.html"
          ],
          "settings": {
            "fontStyle": "bold"
          }
        },
        {
          "scope": [
            "variable.parameter.js",
            "variable.parameter.keyframe-list.css"
          ],
          "settings": {
            "foreground": "#EAE4E9"
          }
        },
        {
          "scope": [
            "variable.other.object.js",
            "storage.type.js",
            "string.other.link.title.markdown",
            "variable.other.readwrite.js",
            "variable.other.property.js"
          ],
          "settings": {
            "foreground": "#BEE1E6",
            "fontStyle": ""
          }
        },
        {
          "scope": [
            "string",
            "string.quoted.double.html",
            "variable.other.constant.js",
            "variable.other.object.property.js",
            "string.quoted.double.json",
            "markup.fenced_code.block.markdown",
            "markup.inline.raw.string.markdown",
            "variable.function",
            "keyword.other.special-method",
            "entity.name.function",
            "markup.bold",
            "markup.bold.markdown",
            "markup.italic.markdown",
            "meta.class-method.js entity.name.function.js",
            "variable.function.constructor",
            "entity.name.tag.other.html",
            "entity.name.tag.block.any.html",
            "source.sass keyword.control"
          ],
          "settings": {
            "foreground": "#DFE7FD"
          }
        },
        {
          "scope": [
            "punctuation.definition.string.begin.html",
            "punctuation.definition.string.end.html"
          ],
          "settings": {
            "foreground": "#FFF1E6"
          }
        },
        {
          "scope": [
            "support.other.variable",
            "string.other.link",
            "markup.table"
          ],
          "settings": {
            "foreground": "#D9AAFF"
          }
        },
        {
          "scope": [
            "constant.numeric",
            "constant.language",
            "constant.character",
            "constant.escape",
            "keyword.other.unit",
            "keyword.other",
            "punctuation.separator.key-value.html"
          ],
          "settings": {
            "foreground": "#EAE4E9"
          }
        },
        {
          "scope": [
            "variable.parameter.function.language.special",
            "variable.parameter"
          ],
          "settings": {
            "foreground": "#E2ECE9"
          }
        },
        {
          "scope": [
            "constant.other.symbol",
            "constant.other.key",
            "entity.other.inherited-class",
            "keyword.other.unit",
            "markup.heading",
            "markup.inserted.git_gutter",
            "meta.group.braces.curly",
            "constant.other.object.key.js",
            "string.unquoted.label.js"
          ],
          "settings": {
            "foreground": "#FAD2E1",
            "fontStyle": ""
          }
        },
        {
          "scope": [
            "entity.name",
            "support.type",
            "support.class",
            "support.orther.namespace.use.php",
            "meta.use.php",
            "support.other.namespace.php",
            "markup.changed.git_gutter",
            "support.type.sys-types",
            "entity.other.attribute-name.html"
          ],
          "settings": {
            "foreground": "#EAE4E9"
          }
        },
        {
          "scope": [
            "support.type"
          ],
          "settings": {
            "foreground": "#B2CCD6"
          }
        },
        {
          "scope": [
            "source.css support.type.property-name",
            "source.sass support.type.property-name",
            "source.scss support.type.property-name",
            "source.less support.type.property-name",
            "source.stylus support.type.property-name",
            "source.postcss support.type.property-name"
          ],
          "settings": {
            "foreground": "#BEE1E6"
          }
        },
        {
          "scope": [
            "entity.name.module.js",
            "variable.import.parameter.js",
            "variable.other.class.js"
          ],
          "settings": {
            "foreground": "#E2ECE9"
          }
        },
        {
          "scope": [
            "entity.name.method.js",
            "tag.decorator.js entity.name.tag.js",
            "tag.decorator.js punctuation.definition.tag.js"
          ],
          "settings": {
            "foreground": "#DFE7FD",
            "fontStyle": "italic"
          }
        },
        {
          "scope": [
            "entity.other.attribute-name",
            "support.function"
          ],
          "settings": {
            "foreground": "#EAE4E9"
          }
        },
        {
          "scope": [
            "entity.other.attribute-name.id",
            "entity.other.attribute-name.class",
            "entity.other.attribute-name.pseudo-class",
            "entity.name.tag.css",
            "keyword.control.conditional.js",
            "support.constant",
            "entity.other.attribute-name.html",
            "string.quoted.single.js",
            "storage.type.function.js",
            "meta.object-literal.key"
          ],
          "settings": {
            "foreground": "#D9AAFF"
          }
        },
        {
          "scope": [
            "source.scss keyword.control"
          ],
          "settings": {
            "foreground": "#EAE4E9"
          }
        },
        {
          "scope": [
            "markup.inserted"
          ],
          "settings": {
            "foreground": "#FAD2E1"
          }
        },
        {
          "scope": [
            "markup.deleted"
          ],
          "settings": {
            "foreground": "#E2ECE9"
          }
        },
        {
          "scope": [
            "markup.changed"
          ],
          "settings": {
            "foreground": "#EAE4E9"
          }
        },
        {
          "scope": [
            "string.regexp"
          ],
          "settings": {
            "foreground": "#FFF1E6"
          }
        },
        {
          "scope": [
            "constant.character.escape"
          ],
          "settings": {
            "foreground": "#FFF1E6"
          }
        },
        {
          "scope": [
            "*url*",
            "*link*",
            "*uri*"
          ],
          "settings": {
            "fontStyle": "underline"
          }
        },
        {
          "scope": [
            "source.js constant.other.object.key.js string.unquoted.label.js"
          ],
          "settings": {
            "foreground": "#D9AAFF",
            "fontStyle": "italic"
          }
        },
        {
          "scope": [
            "support.type.property-name.json"
          ],
          "settings": {
            "foreground": "#D9AAFF"
          }
        },
        {
          "scope": [
            "text.html.markdown",
            "punctuation.definition.list_item.markdown"
          ],
          "settings": {
            "foreground": "#D9AAFF"
          }
        },
        {
          "scope": [
            "text.html.markdown markup.inline.raw.markdown"
          ],
          "settings": {
            "foreground": "#EAE4E9"
          }
        },
        {
          "scope": [
            "text.html.markdown markup.inline.raw.markdown",
            "punctuation.definition.raw.markdown"
          ],
          "settings": {
            "foreground": "#CDDAFD50"
          }
        },
        {
          "scope": [
            "text.html.markdown meta.dummy.line-break"
          ],
          "settings": {}
        },
        {
          "scope": [
            "markdown.heading",
            "markup.heading | markup.heading entity.name",
            "markup.heading.markdown punctuation.definition.heading.markdown",
            "entity.name.section.markdown"
          ],
          "settings": {
            "foreground": "#BEE1E6",
            "fontStyle": "bold"
          }
        },
        {
          "scope": [
            "markup.underline"
          ],
          "settings": {
            "foreground": "#DFE7FD",
            "fontStyle": "underline"
          }
        },
        {
          "scope": [
            "markup.strike"
          ],
          "settings": {
            "fontStyle": ""
          }
        },
        {
          "scope": [
            "markup.quote punctuation.definition.blockquote.markdown"
          ],
          "settings": {
            "foreground": "#CDDAFD50"
          }
        },
        {
          "scope": [
            "markup.quote"
          ],
          "settings": {
            "fontStyle": "italic"
          }
        },
        {
          "scope": [
            "string.other.link.description.title.markdown"
          ],
          "settings": {
            "foreground": "#EAE4E9"
          }
        },
        {
          "scope": [
            "constant.other.reference.link.markdown"
          ],
          "settings": {
            "foreground": "#EAE4E9"
          }
        },
        {
          "scope": [
            "markup.raw.block"
          ],
          "settings": {
            "foreground": "#EAE4E9"
          }
        },
        {
          "scope": [
            "punctuation.definition.raw.markdown",
            "punctuation.definition.markdown"
          ],
          "settings": {
            "foreground": "#FFF1E6"
          }
        },
        {
          "scope": [
            "variable.language.fenced.markdown"
          ],
          "settings": {
            "foreground": "#CDDAFD"
          }
        },
        {
          "scope": [
            "meta.separator"
          ],
          "settings": {
            "foreground": "#A7A8AF",
            "fontStyle": "bold"
          }
        },
        {
          "scope": "token.info-token",
          "settings": {
            "foreground": "#CDDAFD"
          }
        },
        {
          "scope": "token.warn-token",
          "settings": {
            "foreground": "#EAE4E9"
          }
        },
        {
          "scope": "token.error-token",
          "settings": {
            "foreground": "#FF293B"
          }
        },
        {
          "scope": "token.debug-token",
          "settings": {
            "foreground": "#FFF1E6"
          }
        }
      ]
  }
